\relax 
\providecommand\hyper@newdestlabel[2]{}
\providecommand\HyperFirstAtBeginDocument{\AtBeginDocument}
\HyperFirstAtBeginDocument{\ifx\hyper@anchor\@undefined
\global\let\oldcontentsline\contentsline
\gdef\contentsline#1#2#3#4{\oldcontentsline{#1}{#2}{#3}}
\global\let\oldnewlabel\newlabel
\gdef\newlabel#1#2{\newlabelxx{#1}#2}
\gdef\newlabelxx#1#2#3#4#5#6{\oldnewlabel{#1}{{#2}{#3}}}
\AtEndDocument{\ifx\hyper@anchor\@undefined
\let\contentsline\oldcontentsline
\let\newlabel\oldnewlabel
\fi}
\fi}
\global\let\hyper@last\relax 
\gdef\HyperFirstAtBeginDocument#1{#1}
\providecommand\HyField@AuxAddToFields[1]{}
\providecommand\HyField@AuxAddToCoFields[2]{}
\babel@aux{italian}{}
\babel@aux{italian}{}
\@writefile{toc}{\contentsline {section}{\numberline {1}Introduzione}{1}{section.1}}
\@writefile{toc}{\contentsline {subsection}{\numberline {1.1}Motivazioni}{1}{subsection.1.1}}
\@writefile{toc}{\contentsline {subsection}{\numberline {1.2}Requirements}{1}{subsection.1.2}}
\@writefile{toc}{\contentsline {section}{\numberline {2}Documentazione}{2}{section.2}}
\@writefile{toc}{\contentsline {section}{\numberline {3}Descrizione Ontologia}{7}{section.3}}
\@writefile{toc}{\contentsline {subsection}{\numberline {3.1}Classi}{7}{subsection.3.1}}
\@writefile{toc}{\contentsline {subsection}{\numberline {3.2}Object Properties}{10}{subsection.3.2}}
\@writefile{toc}{\contentsline {subsection}{\numberline {3.3}DataProperties}{11}{subsection.3.3}}
\@writefile{toc}{\contentsline {section}{\numberline {4}Visuallizzazione}{11}{section.4}}
\@writefile{toc}{\contentsline {subsection}{\numberline {4.1}Tassonomia dell Classi}{11}{subsection.4.1}}
\@writefile{lof}{\contentsline {figure}{\numberline {1}{\ignorespaces Menu}}{12}{figure.1}}
\newlabel{fig:Menu}{{1}{12}{Menu}{figure.1}{}}
\@writefile{toc}{\contentsline {subsection}{\numberline {4.2}Individui}{12}{subsection.4.2}}
\@writefile{toc}{\contentsline {subsection}{\numberline {4.3}Triple}{13}{subsection.4.3}}
\@writefile{toc}{\contentsline {section}{\numberline {5}FlowChart di iterazione}{15}{section.5}}
\@writefile{toc}{\contentsline {section}{\numberline {6}Applicazione web}{19}{section.6}}
\@writefile{toc}{\contentsline {subsection}{\numberline {6.1}Intro}{19}{subsection.6.1}}
\@writefile{toc}{\contentsline {subparagraph}{App:}{19}{section*.2}}
\@writefile{lof}{\contentsline {figure}{\numberline {2}{\ignorespaces Intro selezione Patologia}}{19}{figure.2}}
\newlabel{fig:Intro selezione Patologia}{{2}{19}{Intro selezione Patologia}{figure.2}{}}
\@writefile{toc}{\contentsline {subparagraph}{Sparql Query:}{19}{section*.3}}
\@writefile{toc}{\contentsline {subsection}{\numberline {6.2}Menu}{19}{subsection.6.2}}
\@writefile{toc}{\contentsline {subparagraph}{App:}{19}{section*.4}}
\@writefile{lof}{\contentsline {figure}{\numberline {3}{\ignorespaces Menu}}{20}{figure.3}}
\newlabel{fig:Menu}{{3}{20}{Menu}{figure.3}{}}
\@writefile{toc}{\contentsline {subparagraph}{Sparql Query:}{20}{section*.5}}
\@writefile{toc}{\contentsline {subsection}{\numberline {6.3}Tabella Nutrizionale}{20}{subsection.6.3}}
\@writefile{toc}{\contentsline {subparagraph}{App:}{20}{section*.6}}
\@writefile{lof}{\contentsline {figure}{\numberline {4}{\ignorespaces Tabella Nutrizionale}}{20}{figure.4}}
\newlabel{fig:Tabella Nutrizionale}{{4}{20}{Tabella Nutrizionale}{figure.4}{}}
\@writefile{toc}{\contentsline {subparagraph}{Sparql Query:}{20}{section*.7}}
\@writefile{toc}{\contentsline {subsection}{\numberline {6.4}Lista Alimenti Consigliati/Sconsigliati}{21}{subsection.6.4}}
\@writefile{toc}{\contentsline {subparagraph}{App:}{21}{section*.8}}
\@writefile{lof}{\contentsline {figure}{\numberline {5}{\ignorespaces Lista alimenti consigliati e sconsiglati per una dieta}}{21}{figure.5}}
\newlabel{fig:Lista alimenti}{{5}{21}{Lista alimenti consigliati e sconsiglati per una dieta}{figure.5}{}}
\@writefile{toc}{\contentsline {subparagraph}{Sparql Query:}{22}{section*.9}}
\@writefile{toc}{\contentsline {subsection}{\numberline {6.5}Creazione Menu}{22}{subsection.6.5}}
\@writefile{toc}{\contentsline {subparagraph}{App:}{22}{section*.10}}
\@writefile{toc}{\contentsline {section}{\numberline {7}Bibliografia}{26}{section.7}}
